{
  "cache" : true,
  "meta" :
  {
    "title" : "Hello",
    "keywords" : "World",
    "description" : "Small"
  },
  "externalScripts" : [],
  "externalStyles" : [],
  "blocks" : ["header", "fixed-header", "slider", "main", "footer"],
  "modules" : [
    "headerContacts",
    "navigation",
    "socialShare",
    "slider",
    "search",
    "sales",
    "rents",
    "follow",
    "comments",
    "contactUs",
    "banner",
    "footer"
  ],
  "plugins" : [],
  "view" : {
    "header" : ["headerContacts","socialShare","navigation"],
    "fixed-header" : [],
    "modals" : ["modals"],
    "slider" : ["slider","search"],
    "main" : ["sales","rents","follow","banner","comments","contactUs"],
    "footer" : ["banner","footer"]
  },
  "routes" : []
}