{
  "cache" : true,
  "meta" :
  {
    "title" : "Hello",
    "keywords" : "World",
    "description" : "Small"
  },
  "externalScripts" : [],
  "externalStyles" : [],
  "blocks" : ["header", "fixed-header", "main", "footer"],
  "modules" : [
    "headerContacts",
    "navigation",
    "socialShare",
    "full_search",
    "follow",
    "comments",
    "contactUs",
    "banner",
    "footer"
  ],
  "plugins" : [],
  "view" : {
    "header" : ["headerContacts","socialShare","navigation"],
    "fixed-header" : [],
    "modals" : ["modals"],
    "main" : ["full_search", "banner","follow","comments","contactUs"],
    "footer" : ["banner","footer"]
  },
  "routes" : []
}