<?xml version="1.0" encoding="UTF-8" ?>
<!DOCTYPE svg PUBLIC "-//W3C//DTD SVG 1.1//EN" "http://www.w3.org/Graphics/SVG/1.1/DTD/svg11.dtd">
<svg width="1145pt" height="354pt" viewBox="0 0 1145 354" version="1.1" xmlns="http://www.w3.org/2000/svg">
<g id="#fdfefcff">
</g>
<g id="#b2cf19ff">
<path fill="#b2cf19" opacity="1.00" d=" M 142.22 40.22 C 143.61 37.92 145.74 39.62 146.61 41.36 C 188.89 83.02 230.63 125.37 272.78 167.22 C 273.92 168.74 276.18 169.75 276.11 171.94 C 267.30 172.34 258.41 171.33 249.67 172.62 C 241.02 171.27 231.89 172.84 223.47 171.48 C 198.55 147.75 174.78 122.84 150.19 98.78 C 147.82 97.14 146.45 92.97 143.21 93.11 C 141.17 95.12 139.15 97.19 137.65 99.64 C 134.01 102.28 130.90 105.56 127.74 108.74 C 107.95 128.62 88.04 148.37 68.28 168.27 C 66.93 169.64 65.49 170.99 63.68 171.72 C 55.24 172.34 46.74 171.52 38.34 172.69 C 29.58 171.42 20.72 172.27 11.92 171.95 C 14.74 164.88 22.75 161.31 27.17 155.18 C 65.50 116.81 103.81 78.51 142.22 40.22 Z" />
<path fill="#b2cf19" opacity="1.00" d=" M 402.30 92.27 C 409.32 88.64 410.11 97.89 410.04 102.01 C 410.79 106.57 405.16 111.14 401.28 107.70 C 396.65 104.09 396.78 94.91 402.30 92.27 Z" />
<path fill="#b2cf19" opacity="1.00" d=" M 778.04 101.08 C 783.26 97.81 788.26 93.83 794.15 91.82 C 794.80 95.51 795.09 99.23 795.02 102.99 C 794.97 133.00 795.04 163.01 794.95 193.03 C 795.17 194.30 794.52 196.28 795.95 197.02 C 797.84 199.09 796.97 203.78 800.84 204.20 C 802.21 204.10 803.25 208.38 803.99 206.14 C 805.11 203.26 805.22 206.70 804.96 207.97 C 795.96 208.01 786.97 208.11 777.99 207.95 C 776.83 204.15 781.25 204.33 783.76 203.71 C 786.24 201.73 785.22 197.57 785.96 195.01 C 785.94 165.09 786.22 135.17 785.81 105.25 C 784.16 102.11 780.71 103.08 778.00 104.00 C 778.01 103.27 778.03 101.81 778.04 101.08 Z" />
<path fill="#b2cf19" opacity="1.00" d=" M 323.20 97.12 C 344.14 97.00 365.12 96.77 386.05 97.19 C 384.01 100.97 387.93 109.23 387.14 98.88 L 387.14 97.89 L 388.05 98.07 C 387.97 100.74 387.79 106.08 387.71 108.75 C 387.23 113.53 386.16 118.60 387.64 123.32 L 387.85 124.09 C 387.43 124.04 386.58 123.94 386.15 123.89 C 385.66 116.97 383.54 109.66 377.74 105.29 C 374.06 106.02 370.46 103.22 366.91 104.78 C 364.97 105.67 362.40 102.76 361.16 105.23 C 360.77 135.49 361.12 165.75 360.99 196.02 C 361.08 200.17 363.26 206.13 368.94 204.04 C 371.07 203.31 369.13 209.02 371.02 206.01 C 372.47 203.48 371.92 206.78 371.97 207.97 C 360.64 207.96 349.32 208.16 338.00 207.94 C 336.52 203.19 343.43 205.28 345.62 203.67 C 347.97 200.66 349.38 196.91 348.96 193.01 C 349.06 164.34 348.97 135.67 349.00 107.00 C 349.63 104.16 345.80 103.96 343.92 104.74 C 339.72 103.94 334.98 103.79 331.12 106.14 C 326.99 109.89 325.16 115.50 324.82 120.94 C 324.41 122.44 324.15 124.59 322.04 124.05 C 322.62 115.17 320.52 105.71 323.20 97.12 Z" />
<path fill="#b2cf19" opacity="1.00" d=" M 590.97 97.04 C 602.64 96.97 614.33 96.90 626.02 97.07 C 631.98 97.94 638.44 98.70 643.28 102.69 C 644.44 103.64 646.27 104.17 645.98 106.03 C 645.45 105.79 644.37 105.32 643.83 105.08 C 646.08 109.08 647.36 114.09 651.07 116.99 C 655.42 130.17 649.93 148.93 635.32 153.42 C 631.78 155.65 636.63 159.91 636.92 162.93 C 637.24 164.76 637.60 169.22 640.23 168.40 L 640.85 168.26 C 641.93 173.59 646.20 177.74 647.41 182.85 C 646.71 185.57 648.64 190.04 651.34 190.36 C 654.67 192.49 657.08 197.58 658.21 201.69 C 661.54 200.44 664.39 203.70 667.52 204.49 C 667.96 205.75 668.96 205.59 670.02 205.24 C 670.01 205.92 669.98 207.27 669.96 207.95 C 662.69 207.97 655.40 208.24 648.16 207.89 C 640.14 190.92 630.26 174.75 622.29 157.74 C 620.64 155.25 616.57 157.50 614.03 157.04 C 613.63 170.61 614.66 184.25 613.51 197.78 C 612.41 200.21 613.11 203.47 616.22 203.52 C 619.02 203.84 622.28 204.16 623.74 206.97 C 624.38 203.67 625.61 205.63 624.96 207.97 C 613.64 207.96 602.32 208.16 591.01 207.94 C 591.02 207.24 591.04 205.84 591.05 205.14 C 597.18 206.10 603.40 200.28 601.97 194.01 C 602.02 165.67 602.03 137.32 601.97 108.98 C 601.65 104.57 598.32 99.37 593.04 100.90 C 590.95 100.97 590.83 98.58 590.97 97.04 M 618.34 104.53 C 616.91 104.75 615.48 104.93 614.06 105.15 C 613.92 120.43 613.98 135.72 614.03 151.00 C 619.73 150.79 627.35 151.31 631.29 146.28 C 641.45 136.35 642.01 118.03 632.30 107.72 C 628.97 103.70 623.08 103.34 618.34 104.53 Z" />
<path fill="#b2cf19" opacity="1.00" d=" M 954.13 96.99 C 965.00 97.13 975.90 96.72 986.77 97.13 C 987.19 99.64 990.26 104.20 983.05 101.15 C 976.76 102.02 978.08 109.08 976.71 113.74 C 975.03 138.75 976.51 163.92 975.95 189.00 C 977.19 191.35 974.57 195.94 976.94 198.04 C 977.40 199.18 978.32 201.45 978.78 202.58 C 982.08 203.46 986.78 204.32 988.07 207.97 C 977.11 207.87 966.13 208.32 955.21 207.85 C 953.87 205.84 953.96 204.48 956.71 204.65 C 963.06 205.89 965.92 199.15 965.24 194.08 C 966.97 166.79 965.53 139.34 966.00 111.99 C 965.36 107.20 964.25 98.74 957.00 101.00 C 954.41 101.63 954.87 98.57 954.13 96.99 Z" />
<path fill="#b2cf19" opacity="1.00" d=" M 647.16 108.12 C 649.48 107.40 650.83 111.35 649.59 112.98 C 648.59 111.46 647.76 109.83 647.16 108.12 Z" />
<path fill="#b2cf19" opacity="1.00" d=" M 437.16 109.05 L 437.95 109.21 C 437.64 111.52 437.79 113.77 438.41 115.96 L 438.57 116.66 C 438.04 122.06 437.84 127.50 438.00 132.92 L 438.97 132.99 C 443.29 132.94 447.65 133.54 452.00 133.35 C 452.00 134.75 451.99 137.55 451.98 138.95 C 447.67 139.10 443.38 138.81 439.10 139.09 C 439.00 139.50 438.80 140.32 438.70 140.73 C 437.14 154.08 438.40 167.59 437.95 181.00 C 438.57 183.87 437.10 187.50 438.82 190.21 C 440.34 192.27 439.11 195.36 440.72 197.29 C 443.61 201.42 451.68 198.15 450.14 193.02 C 452.61 192.27 452.14 195.22 452.60 196.78 C 450.76 201.55 447.67 205.58 443.72 208.79 C 439.12 210.42 434.18 208.04 431.96 204.02 C 428.91 198.18 430.43 191.28 429.92 184.99 C 428.84 175.70 431.24 166.23 429.26 157.07 C 430.73 151.08 429.12 145.11 428.86 139.11 C 426.71 137.66 422.80 140.41 421.11 137.80 C 420.62 135.39 423.56 134.40 424.95 132.95 C 431.47 126.54 434.61 117.62 437.16 109.05 Z" />
<path fill="#b2cf19" opacity="1.00" d=" M 824.11 109.13 L 824.97 108.92 C 824.98 111.69 825.00 117.22 825.01 119.99 C 828.19 119.95 825.15 113.41 826.03 111.00 L 826.99 111.01 C 827.12 118.32 826.82 125.64 827.05 132.96 C 830.30 133.06 833.70 132.89 836.99 133.06 C 837.50 134.98 837.90 136.92 838.14 138.90 C 835.37 138.94 829.81 139.02 827.04 139.06 C 826.94 157.38 827.00 175.70 827.00 194.03 C 826.96 195.88 828.16 197.45 829.16 198.91 C 834.69 200.47 836.57 194.34 841.09 193.00 C 839.31 199.16 836.36 205.27 830.68 208.73 C 823.17 211.45 816.76 204.02 817.06 196.97 C 816.54 179.21 817.70 161.37 816.61 143.65 C 818.77 136.21 811.62 139.72 807.97 138.92 C 807.27 134.01 813.83 133.33 815.44 129.37 C 819.07 123.06 822.58 116.39 824.11 109.13 M 825.02 122.01 C 825.01 124.76 825.01 130.26 825.01 133.01 L 825.98 132.99 C 825.99 130.24 825.99 124.74 825.99 121.99 L 825.02 122.01 Z" />
<path fill="#b2cf19" opacity="1.00" d=" M 405.28 131.28 C 406.82 130.30 407.81 132.45 408.82 133.25 C 409.63 155.26 408.13 177.43 409.53 199.34 C 409.40 204.32 417.04 203.65 417.05 207.95 C 408.77 208.04 400.48 208.15 392.22 207.85 C 391.21 207.43 390.12 204.92 391.99 205.03 C 396.69 204.58 400.21 199.76 398.97 195.01 C 398.88 178.44 399.35 161.85 398.71 145.29 C 397.85 141.60 394.40 141.39 390.99 141.90 C 391.04 141.25 391.14 139.95 391.20 139.30 C 396.08 136.98 400.68 134.12 405.28 131.28 Z" />
<path fill="#b2cf19" opacity="1.00" d=" M 525.22 134.23 C 530.29 129.75 538.05 130.12 543.70 133.35 C 545.57 134.71 547.37 132.43 549.18 131.93 C 550.06 137.67 549.87 143.52 550.63 149.28 C 549.95 151.28 553.08 157.91 549.14 156.89 C 547.70 154.21 549.44 149.99 546.41 148.51 C 545.85 143.34 542.13 137.32 536.67 136.43 C 532.12 134.55 528.97 138.55 526.12 141.20 C 525.28 147.38 525.96 154.61 531.77 158.23 C 535.76 162.69 542.22 163.60 545.83 168.15 C 559.52 177.94 558.02 204.63 540.93 209.94 C 535.30 210.51 529.62 210.27 524.68 207.37 C 522.52 205.99 521.21 209.03 519.14 209.13 C 517.81 200.72 518.82 192.35 519.07 183.93 C 520.17 185.20 521.92 186.13 521.99 188.01 C 523.14 193.40 526.11 198.16 529.52 202.41 C 530.28 204.37 532.66 203.99 534.35 204.53 C 539.17 206.90 542.84 202.73 545.86 199.81 C 545.89 197.12 545.94 191.73 545.96 189.04 C 541.04 176.67 524.57 174.68 519.89 162.08 C 517.32 152.66 517.84 141.46 525.22 134.23 Z" />
<path fill="#b2cf19" opacity="1.00" d=" M 680.03 141.02 C 684.29 133.28 693.89 129.29 702.36 131.57 C 712.45 134.56 715.79 145.18 717.61 154.33 C 716.72 156.24 719.52 160.37 716.78 161.84 C 709.19 160.30 701.61 162.82 693.99 162.02 C 689.57 161.99 684.59 159.87 680.77 162.76 C 678.69 164.85 680.39 168.51 680.00 171.17 C 680.30 170.66 680.89 169.65 681.18 169.14 C 683.62 168.91 681.48 175.73 682.37 178.08 C 681.68 179.73 681.65 183.78 684.13 183.36 C 686.59 184.92 687.48 189.73 690.17 191.82 C 691.87 193.41 694.08 194.42 695.38 196.44 C 698.56 196.30 701.88 197.22 704.92 195.90 C 709.88 193.73 712.30 188.90 714.18 184.09 C 715.19 181.76 714.18 177.75 718.01 179.00 C 717.44 189.17 713.41 199.80 705.78 206.78 C 701.52 210.75 695.65 210.37 690.29 209.74 C 685.57 207.30 681.73 203.57 678.81 199.20 C 673.75 191.01 674.13 181.14 672.12 172.00 C 673.49 161.42 673.11 149.92 680.03 141.02 M 691.35 137.33 C 684.21 140.94 681.13 149.32 680.98 156.94 C 688.90 157.16 696.84 157.05 704.78 156.86 C 707.70 154.54 704.61 150.77 704.25 147.91 C 703.64 141.89 698.13 134.92 691.35 137.33 Z" />
<path fill="#b2cf19" opacity="1.00" d=" M 730.00 140.00 C 734.67 131.28 746.55 128.31 755.10 132.82 C 759.98 133.86 762.96 138.32 764.05 142.97 C 759.66 139.69 764.38 148.47 763.23 149.27 C 763.47 148.74 763.95 147.69 764.19 147.17 L 765.00 146.88 C 765.26 163.43 764.51 180.01 765.35 196.55 C 766.46 197.37 767.18 199.21 768.84 198.96 C 770.11 197.42 772.65 194.35 773.92 192.82 C 775.07 199.83 769.10 204.42 764.71 208.79 C 762.60 207.81 758.75 210.47 757.21 207.79 C 755.12 205.38 755.99 201.52 753.87 199.01 C 748.51 203.13 743.03 212.38 735.00 209.01 C 724.52 204.84 723.63 190.88 726.33 181.30 C 731.74 169.75 743.45 164.58 753.77 158.63 C 753.58 151.26 756.74 141.60 749.09 136.88 C 744.12 134.08 737.58 138.29 737.60 143.73 C 737.35 144.06 736.85 144.73 736.59 145.06 C 734.86 146.89 735.48 149.97 736.52 151.99 C 738.74 155.87 732.11 160.50 729.71 156.28 C 724.88 152.09 727.66 144.79 730.00 140.00 M 735.76 191.21 C 734.23 192.00 734.43 196.70 736.73 196.68 C 737.25 195.34 735.84 194.11 736.26 192.70 C 738.24 195.54 739.86 199.93 743.95 199.99 C 747.73 198.12 751.91 195.75 753.89 191.92 C 755.83 183.05 754.78 173.92 754.97 164.93 C 743.95 167.47 732.12 179.01 735.76 191.21 Z" />
<path fill="#b2cf19" opacity="1.00" d=" M 1006.02 132.02 C 1007.43 130.88 1009.29 131.47 1010.96 131.33 C 1011.06 135.93 1010.85 140.56 1011.11 145.17 C 1015.21 139.84 1019.05 132.68 1026.34 131.39 C 1029.37 129.91 1035.55 131.96 1036.50 134.82 C 1035.25 138.01 1038.49 140.52 1040.08 142.96 C 1041.20 144.11 1041.09 145.87 1041.54 147.33 C 1042.91 163.96 1041.05 180.72 1042.51 197.35 C 1040.43 204.51 1049.25 202.54 1050.05 207.97 C 1041.36 208.02 1032.67 208.08 1024.00 207.96 C 1022.71 204.04 1026.85 205.44 1029.04 204.07 C 1031.92 202.80 1032.26 198.60 1031.97 196.01 C 1031.96 180.69 1032.15 165.36 1031.88 150.05 C 1030.97 147.27 1030.31 144.05 1027.72 142.30 C 1023.78 139.35 1018.63 142.98 1015.71 145.71 C 1012.90 148.35 1009.70 151.58 1011.03 155.99 C 1011.05 170.31 1010.81 184.64 1011.09 198.95 C 1012.02 201.22 1012.76 204.23 1015.68 204.43 C 1017.61 204.70 1018.39 206.33 1019.05 207.97 C 1010.35 208.02 1001.66 208.08 992.99 207.96 C 991.79 203.33 998.15 205.04 999.81 201.77 C 1002.29 185.31 1000.44 168.55 1000.99 151.98 C 1000.50 148.32 1000.86 142.00 996.00 142.03 C 993.84 142.99 992.40 142.64 992.14 140.13 C 996.32 136.76 1001.56 135.01 1006.02 132.02 Z" />
<path fill="#b2cf19" opacity="1.00" d=" M 1066.68 136.68 C 1071.70 130.78 1080.70 129.64 1087.71 132.35 C 1092.24 134.28 1094.61 138.79 1097.70 142.35 C 1098.09 146.17 1098.16 150.01 1097.90 153.84 C 1095.67 155.65 1091.28 157.61 1089.19 154.79 C 1084.37 150.86 1087.57 143.47 1084.22 138.75 C 1081.79 136.46 1078.15 136.94 1075.07 137.02 C 1066.42 142.01 1064.96 153.32 1064.33 162.30 C 1064.20 169.73 1065.36 177.15 1067.76 184.18 L 1067.50 185.05 C 1066.39 186.89 1067.35 189.93 1069.72 189.99 C 1072.32 191.00 1073.59 194.30 1074.32 196.88 C 1078.35 196.34 1083.32 198.52 1086.97 195.98 C 1091.86 193.35 1094.06 188.09 1096.30 183.30 C 1096.97 182.05 1096.65 179.63 1098.67 180.56 C 1099.01 180.14 1099.71 179.30 1100.06 178.89 C 1098.79 189.41 1095.36 200.93 1086.31 207.33 C 1082.60 210.72 1076.87 210.05 1072.31 209.70 C 1062.65 205.38 1058.25 194.73 1056.01 185.01 C 1053.12 168.62 1054.24 149.23 1066.68 136.68 Z" />
<path fill="#b2cf19" opacity="1.00" d=" M 452.98 133.04 C 459.29 133.02 465.64 132.81 471.97 133.07 C 472.32 152.28 471.48 171.55 472.30 190.73 C 471.62 196.18 477.34 201.32 482.71 199.73 C 487.60 197.06 492.40 193.62 493.94 187.94 C 493.88 172.73 494.41 157.44 493.65 142.27 C 493.52 137.59 488.52 137.17 485.13 135.80 C 485.09 135.11 485.01 133.73 484.97 133.04 C 490.54 133.06 496.15 132.69 501.72 133.15 C 501.80 135.95 503.19 134.25 503.92 132.78 C 504.20 153.84 503.79 174.90 504.07 195.95 C 504.84 199.72 509.01 198.87 512.01 198.26 C 511.79 200.01 512.97 202.87 509.97 202.98 C 504.42 204.72 500.10 210.36 494.04 210.01 C 493.89 205.65 494.14 201.30 493.94 196.95 C 488.77 198.09 487.98 205.81 483.00 207.99 C 478.40 211.44 471.21 211.06 467.73 206.26 C 463.66 202.24 463.45 196.03 462.53 190.66 C 460.92 174.06 463.13 157.15 461.40 140.64 C 460.67 135.30 451.87 138.64 452.98 133.04 Z" />
<path fill="#b2cf19" opacity="1.00" d=" M 840.98 133.04 C 847.65 132.94 854.33 132.93 861.02 132.99 C 862.56 132.78 863.54 134.18 864.73 134.89 C 866.48 128.44 867.69 143.30 861.27 137.27 C 860.97 137.50 860.37 137.97 860.07 138.20 C 858.52 150.28 865.64 160.68 868.50 171.82 C 868.29 175.55 868.65 180.61 872.03 183.00 C 873.43 183.74 872.39 186.79 874.73 185.88 C 878.74 173.62 881.06 160.88 885.68 148.83 C 886.39 145.34 887.28 141.75 886.89 138.19 C 885.75 136.63 883.69 137.18 882.06 136.84 C 881.95 135.57 881.94 134.30 882.02 133.03 C 887.34 132.92 892.67 132.92 898.01 133.04 C 898.10 134.26 898.01 135.46 897.75 136.65 C 893.62 138.15 892.64 142.90 891.53 146.68 C 885.34 166.35 880.70 186.48 874.13 206.03 C 871.73 215.47 869.23 225.03 864.70 233.72 C 862.12 238.36 857.96 242.17 852.92 243.96 C 847.54 245.06 842.54 239.33 844.00 234.01 C 841.53 228.99 848.00 226.32 851.58 227.21 C 852.40 230.15 856.26 229.53 858.74 229.73 C 863.05 227.42 864.23 222.02 865.50 217.65 C 865.60 212.46 869.58 208.31 868.94 203.05 C 863.76 190.54 860.37 177.32 855.44 164.68 C 854.20 158.33 850.93 152.64 849.54 146.34 C 847.52 143.11 846.49 138.93 842.62 137.47 C 840.50 136.99 841.02 134.66 840.98 133.04 Z" />
<path fill="#b2cf19" opacity="1.00" d=" M 904.28 191.28 C 907.00 190.65 909.78 192.44 911.99 193.95 C 920.93 208.13 914.30 230.30 897.97 235.98 C 896.56 230.74 902.84 229.68 905.78 226.82 C 908.68 221.71 910.61 216.07 910.88 210.21 C 908.46 207.24 903.77 211.60 900.99 209.05 C 895.95 204.37 897.71 193.92 904.28 191.28 Z" />
<path fill="#b2cf19" opacity="1.00" d=" M 1116.25 192.19 C 1123.31 188.04 1119.34 198.43 1124.94 197.26 C 1125.60 202.12 1124.90 212.50 1117.04 209.98 C 1110.31 206.94 1110.11 196.21 1116.25 192.19 Z" />
</g>
<g id="#1a2a85ff">
<path fill="#1a2a85" opacity="1.00" d=" M 150.19 98.78 C 174.78 122.84 198.55 147.75 223.47 171.48 C 231.89 172.84 241.02 171.27 249.67 172.62 C 251.21 175.60 255.81 177.28 255.88 180.80 C 253.73 182.75 250.70 183.88 249.95 186.98 C 258.65 187.10 267.35 186.87 276.06 187.05 C 275.99 187.48 275.86 188.36 275.79 188.79 C 231.71 232.65 187.86 276.75 143.82 320.64 C 117.35 293.44 88.96 265.67 61.76 238.25 C 54.40 232.66 49.39 224.57 41.86 219.13 C 32.03 208.11 19.95 198.15 10.88 187.05 C 19.97 186.84 29.06 187.19 38.14 186.91 C 36.36 184.68 34.17 182.82 32.21 180.74 C 31.02 176.65 36.62 175.61 38.34 172.69 C 46.74 171.52 55.24 172.34 63.68 171.72 C 65.49 170.99 66.93 169.64 68.28 168.27 C 88.04 148.37 107.95 128.62 127.74 108.74 C 130.90 105.56 134.01 102.28 137.65 99.64 C 137.55 105.11 138.87 111.12 137.36 116.36 C 129.55 124.19 121.69 132.03 113.74 139.75 C 101.03 153.39 86.45 165.35 74.87 180.00 C 91.75 197.42 109.10 214.53 126.24 231.76 C 129.95 235.71 134.47 238.90 137.67 243.32 C 138.72 249.28 137.47 255.46 138.40 261.47 C 140.28 263.00 142.02 264.71 144.02 266.10 C 146.42 264.59 148.63 262.45 149.88 259.89 C 150.33 254.05 149.75 248.16 150.23 242.32 C 170.60 222.34 190.28 201.62 210.96 181.94 C 211.80 181.20 212.42 180.23 212.92 179.24 C 192.20 158.92 171.85 138.23 151.26 117.78 C 147.77 112.32 151.16 104.87 150.19 98.78 Z" />
<path fill="#1a2a85" opacity="1.00" d=" M 790.22 262.46 C 792.47 262.74 794.69 263.61 797.00 263.37 C 796.99 264.79 796.98 267.63 796.97 269.05 C 795.01 268.36 793.74 266.87 792.76 265.13 C 790.08 261.97 784.64 267.01 788.21 268.79 C 791.99 271.70 800.49 273.52 798.81 279.77 C 796.42 282.31 793.30 285.35 789.35 283.37 C 787.59 283.00 785.84 283.21 784.13 283.66 C 781.90 282.47 783.12 277.56 784.84 277.24 C 786.24 279.92 788.58 282.56 791.95 281.99 C 793.91 282.01 794.32 279.71 793.89 278.19 C 790.72 274.95 784.83 274.42 783.01 269.94 C 782.33 265.61 786.43 262.94 790.22 262.46 Z" />
<path fill="#1a2a85" opacity="1.00" d=" M 348.01 262.99 C 354.05 263.03 360.47 262.03 366.07 264.90 C 371.84 268.91 371.06 279.69 364.04 282.02 C 359.77 284.20 354.64 282.66 350.03 282.96 C 349.15 276.36 352.01 268.87 348.01 262.99 M 354.04 264.99 C 354.97 270.29 352.06 277.35 355.23 281.89 C 368.17 285.09 366.59 260.78 354.04 264.99 Z" />
<path fill="#1a2a85" opacity="1.00" d=" M 372.18 262.97 C 377.76 263.00 383.36 262.84 388.96 263.05 C 389.03 264.32 389.05 265.60 389.02 266.89 C 385.54 265.38 381.78 264.83 378.01 264.98 C 378.02 266.74 378.03 270.26 378.04 272.01 C 381.48 273.39 384.21 271.30 387.03 270.00 C 387.01 271.52 386.97 274.57 386.95 276.09 C 383.92 275.45 381.42 272.96 378.00 273.98 C 379.15 275.96 376.53 280.29 379.23 281.89 C 383.87 283.95 386.90 280.50 390.05 278.04 C 388.96 280.80 389.67 286.06 383.99 283.00 C 380.45 281.53 375.27 285.49 372.34 282.86 C 372.64 276.31 374.26 269.35 372.18 262.97 Z" />
<path fill="#1a2a85" opacity="1.00" d=" M 392.04 262.98 C 395.02 262.94 398.13 262.93 401.14 263.09 C 394.56 266.16 399.46 275.39 398.05 280.96 C 402.48 282.77 406.93 281.12 410.01 277.92 C 409.68 279.56 409.21 281.16 408.77 282.77 C 403.17 284.52 397.52 282.75 391.93 284.02 C 392.38 281.92 393.27 279.95 393.90 277.91 C 393.57 273.94 395.03 269.44 393.28 265.68 C 392.86 264.78 392.45 263.88 392.04 262.98 Z" />
<path fill="#1a2a85" opacity="1.00" d=" M 411.86 263.07 C 414.89 262.96 418.08 262.92 421.15 263.09 C 419.12 264.88 415.33 265.68 417.99 269.99 C 419.17 273.89 415.33 280.82 420.22 282.92 C 417.46 283.03 414.71 283.04 411.96 282.97 C 415.24 279.90 413.53 274.92 414.01 271.00 C 416.09 267.22 412.24 265.99 411.86 263.07 Z" />
<path fill="#1a2a85" opacity="1.00" d=" M 423.06 262.98 C 425.75 262.91 428.45 262.93 431.15 263.05 C 429.88 263.90 428.15 264.90 429.36 266.69 C 431.40 269.82 432.25 274.65 434.93 276.87 C 437.31 272.67 439.51 267.94 438.30 263.00 C 446.51 262.95 454.73 262.95 462.96 263.03 C 463.03 264.34 463.04 265.65 463.01 266.96 C 460.02 265.03 456.48 264.87 453.01 264.99 C 453.02 266.74 453.03 270.26 453.04 272.01 C 456.33 273.72 458.75 271.63 460.99 269.92 C 461.00 271.43 461.00 274.45 461.01 275.95 C 458.44 274.73 455.84 273.54 453.06 272.91 C 452.96 275.89 452.89 279.00 453.06 282.01 C 457.31 283.40 460.88 281.34 464.04 278.97 C 463.97 280.38 464.23 282.05 462.78 282.86 C 457.59 283.06 452.41 283.10 447.24 283.00 C 448.11 277.12 448.35 271.11 447.85 265.20 C 447.10 263.82 445.53 263.85 444.19 264.12 C 439.93 269.05 438.46 275.68 435.45 281.35 C 435.23 283.17 433.54 283.10 432.10 283.00 C 428.51 276.60 425.59 269.86 423.06 262.98 Z" />
<path fill="#1a2a85" opacity="1.00" d=" M 465.92 263.02 C 471.48 263.36 478.78 261.06 482.86 266.23 C 485.96 271.15 480.55 271.47 478.99 274.06 C 480.58 277.81 483.75 280.57 487.07 282.80 C 484.50 282.83 481.56 284.86 479.42 282.61 C 477.60 280.09 475.77 277.56 473.95 275.08 C 470.88 276.31 472.92 280.45 473.82 282.83 C 471.24 283.60 467.95 284.79 465.96 282.28 C 466.43 282.13 467.38 281.84 467.86 281.70 C 466.91 275.69 470.66 267.92 465.92 263.02 M 473.03 264.98 C 473.03 266.74 473.02 270.25 473.01 272.01 C 474.68 271.92 476.84 272.51 477.88 270.79 C 478.33 268.02 476.37 263.98 473.03 264.98 Z" />
<path fill="#1a2a85" opacity="1.00" d=" M 487.78 263.08 C 491.57 263.07 499.16 263.04 502.95 263.03 C 507.28 265.56 509.96 270.09 513.22 273.77 C 514.58 276.29 520.34 275.22 515.99 270.00 C 520.33 266.21 506.91 260.00 519.01 262.99 C 521.59 262.61 521.08 263.46 519.25 264.45 C 518.71 270.63 519.20 276.85 518.94 283.04 C 516.03 282.86 511.99 281.67 511.60 278.32 C 509.03 275.88 506.65 273.25 503.99 270.90 C 504.31 274.90 503.33 279.20 504.81 283.06 L 500.26 283.04 C 500.51 276.95 503.06 269.36 498.84 264.11 C 496.24 264.04 491.31 262.67 494.96 269.00 C 495.24 273.63 494.20 278.51 495.77 283.01 C 494.13 280.88 490.64 285.48 489.35 282.85 C 489.82 276.75 490.66 270.46 489.74 264.37 C 489.25 264.05 488.27 263.40 487.78 263.08 Z" />
<path fill="#1a2a85" opacity="1.00" d=" M 530.32 263.33 C 534.12 262.76 537.96 263.35 541.78 263.43 C 542.35 265.27 542.99 267.12 543.04 269.08 C 540.41 267.74 538.29 265.66 535.91 263.99 C 532.92 264.14 529.33 264.97 527.94 267.95 C 524.42 274.36 529.67 284.67 537.94 282.02 C 537.97 279.52 538.04 274.51 538.08 272.01 C 547.13 268.45 542.62 277.23 542.80 281.80 C 537.47 284.08 530.24 285.93 525.70 281.32 C 518.10 277.03 522.78 264.98 530.32 263.33 Z" />
<path fill="#1a2a85" opacity="1.00" d=" M 553.92 263.02 C 559.68 263.52 566.75 261.40 571.79 265.21 C 574.59 266.96 572.73 270.98 571.00 272.96 C 572.01 275.50 577.64 274.55 573.85 279.77 C 569.55 285.16 561.97 281.81 556.16 283.89 C 553.19 277.82 559.57 268.52 553.92 263.02 M 561.04 265.00 C 561.03 266.75 561.02 270.25 561.02 272.01 C 563.45 271.94 567.59 273.20 567.99 269.95 C 568.90 266.38 564.34 263.27 561.04 265.00 M 561.04 273.99 C 560.91 276.66 560.91 279.34 561.03 282.02 C 563.56 282.45 570.46 281.46 568.85 277.21 C 566.88 275.03 564.06 273.47 561.04 273.99 Z" />
<path fill="#1a2a85" opacity="1.00" d=" M 575.78 263.09 C 581.49 263.00 587.23 262.82 592.96 263.05 C 593.03 264.35 593.04 265.65 593.01 266.96 C 590.02 265.03 586.47 264.87 583.01 264.99 C 583.02 266.74 583.03 270.26 583.04 272.01 C 586.21 273.68 588.67 271.74 590.82 270.02 C 591.05 272.05 591.54 274.04 591.97 276.03 C 588.50 276.82 587.00 271.70 583.03 273.98 C 584.48 276.58 579.61 286.24 588.03 282.03 C 590.93 281.99 592.79 279.37 595.05 277.92 C 594.84 280.84 592.88 283.40 589.95 283.96 C 585.73 283.63 581.50 282.86 577.27 282.95 C 577.96 276.82 578.62 270.49 577.74 264.37 C 577.25 264.05 576.27 263.41 575.78 263.09 Z" />
<path fill="#1a2a85" opacity="1.00" d=" M 597.23 263.14 C 603.13 262.96 609.07 262.79 614.98 263.07 C 617.93 272.13 612.60 266.15 609.94 265.01 C 604.31 264.53 608.16 273.14 606.98 276.00 C 604.25 280.28 608.13 281.19 610.21 282.89 C 606.99 282.92 604.00 283.13 600.84 282.94 C 603.13 281.80 603.85 279.82 603.00 276.99 C 601.78 273.45 605.16 267.83 601.78 265.13 C 599.42 264.15 598.22 267.10 595.99 267.08 C 596.00 265.65 595.71 263.93 597.23 263.14 Z" />
<path fill="#1a2a85" opacity="1.00" d=" M 616.03 263.03 C 622.33 263.02 628.67 262.80 634.99 263.07 C 638.22 271.27 632.49 267.62 630.71 265.25 C 624.55 263.33 627.74 273.04 626.98 276.00 C 624.25 280.26 628.10 281.17 630.17 282.86 C 628.05 280.99 624.81 285.44 623.14 282.81 C 622.75 277.27 623.32 271.71 622.85 266.20 C 620.87 263.12 618.36 266.79 616.04 267.09 C 615.96 265.73 615.95 264.38 616.03 263.03 Z" />
<path fill="#1a2a85" opacity="1.00" d=" M 635.92 263.03 C 641.59 263.01 647.28 262.84 652.97 263.04 C 653.03 264.39 653.03 265.74 652.96 267.09 C 650.03 266.91 648.70 262.70 644.99 265.01 C 640.83 263.76 643.31 269.47 643.04 272.01 C 647.05 274.55 648.80 270.42 651.95 269.86 C 651.96 271.42 651.96 274.53 651.97 276.09 C 649.14 275.79 647.00 273.17 644.22 273.12 C 641.43 275.07 643.36 279.13 643.04 282.01 C 647.62 282.63 651.67 281.34 655.20 278.16 C 654.57 280.91 652.89 283.42 649.95 283.97 C 645.63 283.65 641.24 282.17 637.08 283.99 C 637.23 277.27 640.83 268.65 635.92 263.03 Z" />
<path fill="#1a2a85" opacity="1.00" d=" M 655.78 263.07 C 661.37 263.37 668.75 261.03 672.86 266.23 C 675.95 271.15 670.56 271.47 668.99 274.06 C 670.58 277.89 673.89 280.59 677.19 282.95 C 670.11 285.64 666.56 279.06 663.06 274.80 C 663.04 277.39 661.76 281.82 665.19 282.87 C 663.31 280.85 658.81 285.91 657.36 282.84 C 657.80 276.73 658.67 270.45 657.74 264.38 C 657.25 264.05 656.27 263.40 655.78 263.07 M 663.04 264.97 C 663.03 266.73 663.02 270.25 663.01 272.01 C 664.78 272.03 667.88 272.49 667.99 269.95 C 668.73 267.04 665.89 264.35 663.04 264.97 Z" />
<path fill="#1a2a85" opacity="1.00" d=" M 685.92 263.02 C 688.41 263.22 693.40 263.62 695.89 263.82 C 690.95 263.00 693.29 268.84 693.05 271.98 C 695.69 272.09 698.34 272.08 701.01 271.95 C 701.11 268.90 701.32 265.82 700.17 262.95 C 702.78 262.91 705.40 262.94 708.04 263.04 C 703.96 268.05 706.47 275.70 706.26 281.63 C 711.48 283.94 702.26 283.42 700.08 284.01 C 700.52 280.69 701.15 277.37 701.00 274.02 C 698.32 273.90 695.66 273.91 693.00 274.05 C 693.69 276.60 691.36 281.67 695.13 282.85 C 692.51 283.23 689.87 283.83 687.29 282.90 C 687.04 276.55 690.78 268.29 685.92 263.02 Z" />
<path fill="#1a2a85" opacity="1.00" d=" M 717.32 263.34 C 722.14 262.10 727.85 262.78 730.68 267.29 C 734.39 272.86 731.13 280.98 725.03 283.05 C 719.78 285.75 713.51 283.10 710.13 278.80 C 710.39 274.90 708.81 269.98 711.75 266.74 C 713.17 265.01 715.37 264.29 717.32 263.34 M 719.28 264.28 C 712.16 267.02 713.20 277.46 718.20 281.85 C 722.62 284.20 726.84 280.09 726.95 276.01 C 726.06 272.82 726.51 269.21 724.64 266.38 C 722.97 265.49 721.37 263.18 719.28 264.28 Z" />
<path fill="#1a2a85" opacity="1.00" d=" M 734.16 262.93 C 743.78 259.60 742.14 273.75 747.80 276.85 C 749.80 272.58 751.57 268.16 754.18 264.21 C 755.75 261.57 759.38 263.27 762.00 262.97 C 762.03 266.06 753.44 261.06 758.97 269.01 C 759.22 273.64 758.20 278.52 759.77 283.01 C 749.57 287.84 754.84 275.80 753.98 270.93 C 750.46 273.59 749.53 279.29 746.89 283.02 C 742.36 282.68 741.91 276.45 739.72 273.22 C 735.84 271.45 738.24 277.58 738.05 279.94 C 738.41 281.13 739.44 281.94 740.08 282.99 C 738.55 282.99 735.49 282.99 733.96 282.98 C 735.06 281.51 736.38 280.02 736.05 278.02 C 735.99 274.56 736.40 271.04 735.41 267.69 C 735.01 266.09 734.61 264.51 734.16 262.93 Z" />
<path fill="#1a2a85" opacity="1.00" d=" M 762.92 263.03 C 768.58 263.01 774.27 262.83 779.96 263.05 C 780.02 264.35 780.04 265.65 780.01 266.96 C 776.72 264.83 772.76 264.89 768.99 265.02 C 767.50 268.28 769.46 275.14 774.65 271.41 C 777.29 271.23 781.47 269.20 777.96 276.11 C 776.17 275.86 774.25 275.01 773.62 273.21 C 770.86 273.78 765.78 273.64 768.98 279.03 C 768.46 282.91 773.80 283.05 776.36 281.39 C 778.11 280.52 779.41 278.99 781.03 277.91 C 781.14 280.27 780.31 283.14 777.70 283.70 C 773.17 283.91 768.59 282.29 764.15 283.61 C 760.66 282.14 769.55 278.81 764.99 276.00 C 764.46 271.70 766.68 266.30 762.92 263.03 Z" />
<path fill="#1a2a85" opacity="1.00" d=" M 808.92 263.02 C 814.21 262.90 819.52 262.93 824.83 263.11 C 825.32 264.39 825.84 265.69 826.05 267.07 C 822.42 265.70 813.92 262.22 815.06 268.94 C 815.29 273.72 819.97 271.33 822.96 270.93 C 826.29 281.65 818.92 270.92 815.66 274.67 C 813.13 277.28 815.60 281.31 818.05 282.87 C 815.46 283.23 812.84 283.82 810.29 282.90 C 810.04 276.55 813.79 268.29 808.92 263.02 Z" />
<path fill="#1a2a85" opacity="1.00" d=" M 834.30 263.29 C 840.65 261.11 850.70 265.04 849.04 273.00 C 849.85 280.96 839.93 286.54 833.06 282.91 C 823.60 280.54 825.65 265.67 834.30 263.29 M 834.30 265.15 C 831.14 269.84 830.81 277.04 834.99 281.05 C 839.43 284.54 846.07 279.15 844.00 274.00 C 845.40 268.41 840.28 262.27 834.30 265.15 Z" />
<path fill="#1a2a85" opacity="1.00" d=" M 850.92 263.02 C 856.47 263.36 863.78 261.06 867.86 266.23 C 870.94 271.15 865.56 271.47 863.99 274.06 C 865.57 277.83 868.77 280.56 872.08 282.82 C 866.06 285.56 861.59 279.82 858.79 275.16 C 854.27 273.65 857.00 281.40 859.08 282.99 C 857.37 282.99 853.95 282.99 852.25 282.99 C 852.11 276.62 855.77 268.32 850.92 263.02 M 857.01 265.01 C 857.22 267.62 855.62 271.18 858.22 272.88 C 859.98 273.12 861.50 271.71 862.93 270.83 C 863.43 267.40 860.75 263.70 857.01 265.01 Z" />
<path fill="#1a2a85" opacity="1.00" d=" M 880.82 263.11 C 880.82 263.72 894.09 261.66 888.15 264.36 C 888.41 267.36 891.08 269.91 893.01 271.98 C 895.21 269.85 898.13 266.22 896.17 262.94 C 898.82 262.88 901.49 262.94 904.17 263.10 C 899.45 265.32 896.96 270.00 894.27 274.30 C 894.46 276.92 892.47 281.78 896.22 282.92 C 893.55 283.05 890.89 283.07 888.25 282.98 C 888.45 279.45 890.85 274.27 886.49 272.54 C 885.14 269.09 882.35 266.44 880.82 263.11 Z" />
<path fill="#1a2a85" opacity="1.00" d=" M 911.34 263.33 C 916.82 261.94 925.12 263.36 926.20 269.90 C 927.97 273.18 926.05 276.68 924.71 279.72 C 919.45 286.05 907.17 284.80 904.28 276.70 C 904.05 273.81 904.71 271.03 905.27 268.24 C 906.94 266.21 909.17 264.78 911.34 263.33 M 914.28 264.28 C 905.77 266.91 907.92 284.29 917.70 281.71 C 923.11 279.87 920.54 272.49 920.69 268.34 C 919.36 266.17 917.21 263.12 914.28 264.28 Z" />
<path fill="#1a2a85" opacity="1.00" d=" M 928.01 262.99 C 930.91 262.94 934.13 262.94 937.11 263.05 C 933.78 265.01 934.05 269.68 934.03 273.00 C 934.58 276.13 934.34 279.85 937.24 281.85 C 939.83 282.40 944.75 281.67 945.30 278.29 C 945.73 274.25 947.12 269.58 945.29 265.70 C 944.86 264.78 944.44 263.87 944.03 262.97 C 945.81 263.00 949.37 263.05 951.15 263.07 C 943.72 266.54 951.75 277.47 945.28 282.25 C 940.72 284.92 932.86 285.04 930.28 279.71 C 929.46 274.14 931.45 267.92 928.01 262.99 Z" />
<path fill="#1a2a85" opacity="1.00" d=" M 951.92 263.02 C 957.47 263.36 964.78 261.06 968.86 266.23 C 971.94 271.15 966.56 271.47 964.99 274.06 C 966.57 277.83 969.77 280.56 973.08 282.82 C 967.05 285.56 962.60 279.82 959.79 275.17 C 955.27 273.68 958.91 281.03 959.98 283.03 C 958.30 283.02 954.93 283.00 953.25 282.99 C 953.10 276.62 956.77 268.32 951.92 263.02 M 959.21 265.13 C 956.87 266.83 956.64 272.52 960.00 272.97 C 961.40 272.48 962.72 271.74 963.91 270.84 C 964.93 267.92 962.48 264.10 959.21 265.13 Z" />
<path fill="#1a2a85" opacity="1.00" d=" M 982.01 263.00 C 987.32 262.93 992.64 262.94 997.98 263.03 C 998.03 264.38 998.02 265.73 997.96 267.09 C 995.04 266.94 993.70 262.68 990.03 265.02 C 986.81 265.38 987.97 269.52 988.00 272.00 C 990.97 272.92 993.53 271.15 996.03 270.02 C 996.02 271.51 996.01 274.48 996.00 275.97 C 993.85 275.00 991.70 273.33 989.21 274.14 C 986.16 276.17 988.72 280.38 989.90 282.90 C 987.71 283.52 985.46 283.65 983.30 282.89 C 983.59 276.35 985.89 268.86 982.01 263.00 Z" />
<path fill="#1a2a85" opacity="1.00" d=" M 999.92 263.02 C 1002.82 262.96 1006.09 262.94 1009.08 263.04 C 1006.76 264.88 1004.55 267.59 1005.99 271.00 C 1005.70 274.71 1006.15 279.28 1009.23 281.86 C 1012.02 282.84 1014.79 281.46 1016.91 279.83 C 1016.65 274.25 1017.92 268.34 1016.17 262.93 C 1017.92 262.97 1021.40 263.04 1023.14 263.08 C 1015.72 266.54 1023.75 277.48 1017.28 282.25 C 1013.43 284.46 1008.35 284.51 1004.26 282.71 C 998.85 277.63 1005.06 268.21 999.92 263.02 Z" />
<path fill="#1a2a85" opacity="1.00" d=" M 1024.20 263.13 C 1030.43 262.97 1036.71 262.82 1042.97 263.06 C 1043.03 264.38 1043.03 265.71 1042.97 267.04 C 1039.94 267.51 1038.20 263.88 1035.04 264.99 C 1036.71 270.31 1031.47 279.53 1037.22 282.94 C 1035.44 282.94 1031.86 282.96 1030.07 282.96 C 1031.04 277.05 1031.88 270.84 1029.79 265.09 C 1027.58 264.41 1025.79 265.65 1024.13 266.89 C 1022.44 265.97 1023.80 264.40 1024.20 263.13 Z" />
<path fill="#1a2a85" opacity="1.00" d=" M 1044.19 262.95 C 1047.04 262.92 1050.21 262.93 1053.14 263.09 C 1051.15 264.88 1047.23 265.68 1049.98 269.99 C 1050.48 273.17 1049.06 277.05 1050.92 280.02 C 1053.84 284.27 1064.18 281.40 1061.03 275.00 C 1060.43 271.07 1062.30 266.04 1058.92 263.03 C 1066.77 263.62 1075.16 261.51 1082.74 264.29 C 1084.16 265.64 1085.41 267.74 1084.84 269.77 C 1083.52 271.55 1081.20 272.34 1079.97 274.05 C 1082.20 277.29 1084.90 280.36 1088.02 282.82 C 1085.45 283.71 1082.83 284.03 1080.36 282.67 C 1078.82 279.62 1076.92 276.78 1074.09 274.80 C 1073.94 277.45 1072.80 281.84 1076.23 282.92 C 1075.94 281.32 1065.26 285.24 1069.16 281.20 C 1070.72 276.33 1070.07 270.74 1069.31 265.72 C 1069.20 265.30 1068.99 264.47 1068.89 264.05 L 1064.05 263.99 C 1063.21 269.92 1066.07 278.16 1060.77 282.74 C 1055.93 283.74 1049.76 285.22 1046.26 280.77 C 1044.58 274.95 1045.97 268.70 1044.19 262.95 M 1074.05 265.00 C 1073.90 267.59 1073.87 270.19 1073.95 272.79 C 1075.44 271.90 1078.85 272.85 1078.98 270.91 C 1081.48 266.18 1077.35 264.33 1074.05 265.00 Z" />
<path fill="#1a2a85" opacity="1.00" d=" M 1090.15 262.97 C 1095.36 262.87 1100.58 262.92 1105.81 263.13 C 1107.24 263.95 1106.98 265.62 1107.01 267.03 C 1103.51 267.89 1101.99 262.61 1097.99 265.01 C 1093.82 263.76 1096.29 269.47 1096.04 272.01 C 1100.12 274.08 1102.43 270.96 1104.93 268.83 C 1104.95 270.60 1104.99 274.12 1105.01 275.89 C 1102.13 274.91 1099.16 273.58 1096.03 273.98 C 1097.47 276.57 1092.60 286.24 1101.03 282.02 C 1103.93 281.99 1105.79 279.39 1108.03 277.91 C 1108.13 279.63 1107.56 281.27 1106.76 282.77 C 1101.66 284.30 1096.18 283.72 1091.02 282.93 C 1091.08 281.26 1091.21 277.93 1091.27 276.26 C 1091.60 273.40 1092.44 270.48 1091.42 267.68 C 1091.01 266.10 1090.61 264.53 1090.15 262.97 Z" />
</g>
</svg>
